<svg xmlns="http://www.w3.org/2000/svg" width="26" height="33" viewBox="0 0 26 33">
  <defs>
    <style>
      .cls-1 {
        fill: #ff3d00;
        fill-rule: evenodd;
      }
    </style>
  </defs>
  <path class="cls-1" d="M14.7,22.8H13.4v1.6H14a2.22,2.22,0,0,0,.9-0.1,1.048,1.048,0,0,0,.4-0.3,0.756,0.756,0,0,0,.1-0.4,0.764,0.764,0,0,0-.2-0.5A0.683,0.683,0,0,0,14.7,22.8Zm-5.2,0H8.1v1.6H8.7a2.22,2.22,0,0,0,.9-0.1A1.048,1.048,0,0,0,10,24a0.756,0.756,0,0,0,.1-0.4,0.764,0.764,0,0,0-.2-0.5A0.419,0.419,0,0,0,9.5,22.8ZM5.9,5.4H19.1V7.8H5.9V5.4Zm0,5.1H13v2.4H5.9V10.5ZM21.1,0H0V28.1A4.908,4.908,0,0,0,4.9,33H26V4.9A4.908,4.908,0,0,0,21.1,0ZM5.9,27.4H4.8V26.3H5.9v1.1Zm5.2-3a1.205,1.205,0,0,1-.5.5l-0.6.3a4.121,4.121,0,0,1-1.2.1H8.1v2.1H7V21.8H8.8a3.808,3.808,0,0,1,1.3.1,2.177,2.177,0,0,1,.8.5,1.609,1.609,0,0,1,.3,1.1A1.254,1.254,0,0,1,11.1,24.4Zm5.2,0a1.205,1.205,0,0,1-.5.5l-0.6.3a4.121,4.121,0,0,1-1.2.1H13.3v2.1H12.2V21.8H14a3.808,3.808,0,0,1,1.3.1,2.177,2.177,0,0,1,.8.5,1.609,1.609,0,0,1,.3,1.1A1.254,1.254,0,0,1,16.3,24.4Zm5.1-1.6H19.7v4.6H18.6V22.8H17V21.9h4.4v0.9Zm2.3-6.3H2.3V2.3H21.1a2.647,2.647,0,0,1,2.6,2.6V16.5Z"/>
</svg>
