{
"type": "FeatureCollection",
"name": "Matabeleland North",
"crs": { "type": "name", "properties": { "name": "urn:ogc:def:crs:OGC:1.3:CRS84" } },
"features": [
{ "type": "Feature", "properties": { "Name": "Matabeleland North Layer", "description": null }, "geometry": { "type": "Polygon", "coordinates": [ [ [ 25.2738266, -17.8015469 ], [ 25.2353744, -17.9165732 ], [ 25.4056625, -18.1516214 ], [ 25.8011703, -18.6572027 ], [ 25.8121567, -18.8288639 ], [ 25.9604721, -18.9380117 ], [ 25.9714584, -19.1197661 ], [ 26.224144, -19.586214 ], [ 26.3669662, -19.6172629 ], [ 26.4493637, -19.7413986 ], [ 26.6141586, -19.8085985 ], [ 26.6361313, -19.870604 ], [ 27.2733383, -19.8137665 ], [ 27.3612289, -19.8034303 ], [ 27.5479965, -19.8861016 ], [ 27.5864486, -19.9738926 ], [ 27.8556137, -20.2060442 ], [ 27.9544906, -20.0719541 ], [ 27.998436, -20.1080666 ], [ 28.1632309, -20.1080666 ], [ 28.333519, -20.35547 ], [ 28.5093002, -20.216354 ], [ 28.4159164, -20.1905781 ], [ 28.3664779, -20.0409939 ], [ 28.4488754, -20.0358333 ], [ 28.5257797, -19.9584036 ], [ 28.6411361, -20.0925908 ], [ 28.7729721, -20.1493278 ], [ 28.8498764, -20.0822728 ], [ 28.8114242, -20.0255115 ], [ 28.9817123, -19.9377492 ], [ 28.9432602, -19.8396042 ], [ 29.0970688, -19.8447713 ], [ 29.1080551, -19.684515 ], [ 29.0311508, -19.6534791 ], [ 29.1300278, -19.5551591 ], [ 29.0860824, -19.4930313 ], [ 29.2234115, -19.5085655 ], [ 29.0696029, -19.3479739 ], [ 29.0915756, -19.2702115 ], [ 28.9926986, -19.161282 ], [ 28.9597397, -19.0315102 ], [ 28.8608627, -18.7612606 ], [ 29.1300278, -18.6259728 ], [ 29.1190414, -18.5530809 ], [ 28.0039291, -18.5530809 ], [ 28.0039291, -18.2246833 ], [ 28.0753403, -18.1881562 ], [ 28.0478744, -18.1411815 ], [ 28.0753403, -18.0471943 ], [ 28.0149154, -18.0001819 ], [ 28.1082992, -17.738774 ], [ 28.1852035, -17.6707452 ], [ 28.2566147, -17.4088567 ], [ 28.1577377, -17.2830164 ], [ 28.0533676, -17.1045955 ], [ 28.0149154, -16.8839571 ], [ 27.8116684, -16.9838019 ], [ 27.6084213, -17.2882615 ], [ 27.130516, -17.8224663 ], [ 27.0426254, -17.9531569 ], [ 26.6690903, -18.078529 ], [ 26.5152817, -17.9845083 ], [ 26.2131576, -17.8956649 ], [ 26.092308, -17.9374791 ], [ 25.9659653, -17.9949575 ], [ 25.8451156, -17.963608 ], [ 25.8341293, -17.8852098 ], [ 25.691307, -17.8224663 ], [ 25.4935531, -17.869526 ], [ 25.2738266, -17.8015469 ] ] ] } },
{ "type": "Feature", "properties": { "Name": "Binga", "description": null }, "geometry": { "type": "Point", "coordinates": [ 27.341081, -17.6241483 ] } },
{ "type": "Feature", "properties": { "Name": "Bubi", "description": null }, "geometry": { "type": "Point", "coordinates": [ 28.579798100000101, -19.4911768 ] } },
{ "type": "Feature", "properties": { "Name": "Hwange", "description": null }, "geometry": { "type": "Point", "coordinates": [ 26.5019976, -18.3558779 ] } },
{ "type": "Feature", "properties": { "Name": "Lupane", "description": "<a href=\"google\">google<\/a>" }, "geometry": { "type": "Point", "coordinates": [ 27.7593273, -18.9300127 ] } },
{ "type": "Feature", "properties": { "Name": "Nkayi", "description": null }, "geometry": { "type": "Point", "coordinates": [ 28.9004553, -18.9991892 ] } },
{ "type": "Feature", "properties": { "Name": "Tsholotsho", "description": null }, "geometry": { "type": "Point", "coordinates": [ 27.757861300000101, -19.7687991 ] } },
{ "type": "Feature", "properties": { "Name": "Umguza", "description": null }, "geometry": { "type": "Point", "coordinates": [ 28.205876799999899, -19.7284217 ] } }
]
}
